Coffee Sales
…
# The Dataset

- The data spans one year

- There are 3547 rows, each being a different coffee order 

- There are 11 columns: hour of the day (numerical), if the patron paid cash or card, money (price), the drink ordered, the time of day (morning, afternoon, evening), what day of the week it was, what month it was, the day of the week numerically (ex, 5 for Friday), the month numerically (ex. 3 for March), the exact date, and the exact time of sale. 
---

``` r
tibble(coffee)
```

```
## # A tibble: 3,547 × 11
##    hour_of_day cash_type money coffee_name        Time_of_Day Weekday Month_name
##          <dbl> <chr>     <dbl> <chr>              <chr>       <chr>   <chr>     
##  1          10 card       38.7 Latte              Morning     Fri     Mar       
##  2          12 card       38.7 Hot Chocolate      Afternoon   Fri     Mar       
##  3          12 card       38.7 Hot Chocolate      Afternoon   Fri     Mar       
##  4          13 card       28.9 Americano          Afternoon   Fri     Mar       
##  5          13 card       38.7 Latte              Afternoon   Fri     Mar       
##  6          15 card       33.8 Americano with Mi… Afternoon   Fri     Mar       
##  7          16 card       38.7 Hot Chocolate      Afternoon   Fri     Mar       
##  8          18 card       33.8 Americano with Mi… Night       Fri     Mar       
##  9          19 card       38.7 Cocoa              Night       Fri     Mar       
## 10          19 card       33.8 Americano with Mi… Night       Fri     Mar       
## # ℹ 3,537 more rows
## # ℹ 4 more variables: Weekdaysort <dbl>, Monthsort <dbl>, Date <date>,
## #   Time <time>
```
…
